<svg width="53" height="61" viewBox="0 0 53 61" fill="none" xmlns="http://www.w3.org/2000/svg">
<path fill-rule="evenodd" clip-rule="evenodd" d="M38.8601 25.7848C38.8601 32.5428 33.3817 38.0212 26.6237 38.0212C19.8657 38.0212 14.3873 32.5428 14.3873 25.7848C14.3873 19.0268 19.8657 13.5484 26.6237 13.5484C33.3817 13.5484 38.8601 19.0268 38.8601 25.7848ZM33.9025 50.5279C44.5988 47.3864 52.4085 37.4976 52.4085 25.7848C52.4085 11.5443 40.8642 0 26.6237 0C12.3831 0 0.838867 11.5443 0.838867 25.7848C0.838867 38.2375 9.66645 48.6285 21.4052 51.0413L27.4829 60.1645L33.9025 50.5279Z" fill="#E73625"/>
</svg>
