<?xml version="1.0" standalone="no"?>
<!DOCTYPE svg PUBLIC "-//W3C//DTD SVG 20010904//EN"
 "http://www.w3.org/TR/2001/REC-SVG-20010904/DTD/svg10.dtd">
<svg version="1.0" xmlns="http://www.w3.org/2000/svg"
 width="700.000000pt" height="700.000000pt" viewBox="0 0 700.000000 700.000000"
 preserveAspectRatio="xMidYMid meet">
<metadata>
Created by potrace 1.14, written by Peter Selinger 2001-2017
</metadata>
<g transform="translate(0.000000,700.000000) scale(0.100000,-0.100000)"
fill="#000000" stroke="none">
<path d="M4900 6883 c-107 -62 -211 -121 -230 -132 -32 -16 -309 -176 -470
-271 -36 -21 -180 -104 -320 -184 -140 -81 -262 -151 -270 -156 -28 -16 -515
-298 -550 -318 -32 -17 -383 -221 -451 -261 -40 -23 -314 -181 -368 -212 -130
-74 -278 -160 -291 -169 -8 -6 -22 -13 -30 -17 -8 -4 -32 -17 -53 -31 -22 -13
-60 -35 -85 -49 -84 -46 -142 -85 -137 -93 2 -4 11 -48 20 -99 26 -159 45
-265 49 -287 2 -12 7 -37 10 -55 3 -19 19 -115 36 -214 17 -99 42 -242 55
-318 13 -76 25 -140 27 -142 2 -2 33 19 68 47 72 56 161 117 224 152 90 52
322 187 336 196 8 6 22 13 30 17 8 4 38 20 65 36 55 32 227 132 430 249 72 41
204 118 295 170 91 52 284 164 429 248 146 84 279 160 295 170 17 10 119 68
226 130 107 62 211 122 230 133 19 10 54 30 77 44 l42 24 12 -23 c19 -36 40
-73 119 -208 40 -68 81 -138 90 -155 9 -16 68 -118 130 -225 62 -107 122 -211
133 -230 11 -19 43 -76 73 -125 70 -120 158 -304 154 -323 0 -1 6 -15 13 -30
12 -23 37 -112 38 -134 0 -4 5 -22 10 -40 15 -49 21 -257 9 -319 -6 -30 -13
-66 -15 -82 -16 -86 -88 -238 -159 -335 -55 -75 -179 -202 -259 -265 -118 -95
-176 -131 -753 -465 -144 -83 -275 -159 -292 -169 -17 -10 -82 -47 -144 -83
-138 -80 -143 -82 -458 -265 -140 -82 -307 -178 -370 -215 -63 -37 -148 -86
-187 -109 -40 -23 -73 -45 -73 -50 0 -4 39 -120 86 -257 47 -137 111 -321 141
-409 30 -88 68 -200 85 -250 16 -49 31 -92 34 -94 2 -2 9 1 16 6 7 6 34 22 60
36 43 24 174 100 393 227 50 29 108 62 130 75 22 12 81 46 130 75 50 29 110
64 135 78 25 14 113 65 197 113 83 49 169 98 190 110 44 25 601 347 653 378
19 11 55 32 80 46 88 49 223 128 305 178 110 67 355 237 391 271 7 6 31 27 55
46 180 144 378 365 520 580 148 225 257 514 296 790 10 72 10 398 0 475 -44
327 -175 683 -365 995 -12 19 -25 41 -29 49 -3 8 -35 64 -71 125 -36 61 -73
125 -83 143 -18 32 -231 401 -265 460 -113 193 -190 329 -192 340 -2 7 -8 13
-13 13 -5 0 -9 4 -9 9 0 5 -62 117 -138 248 -77 131 -172 295 -212 366 -40 70
-75 129 -79 131 -3 1 -94 -48 -201 -111z"/>
<path d="M1409 4854 c-421 -285 -732 -673 -875 -1092 -132 -386 -131 -812 3
-1237 69 -217 146 -382 329 -700 248 -433 264 -460 274 -475 6 -8 16 -26 22
-40 7 -14 34 -60 60 -103 27 -43 48 -80 48 -83 0 -3 69 -121 90 -154 6 -8 13
-22 17 -30 6 -14 51 -91 198 -345 83 -143 88 -151 219 -379 65 -113 123 -206
129 -206 9 0 148 79 557 315 74 43 189 109 255 147 66 39 121 71 123 73 2 2
-22 48 -53 102 -32 54 -69 118 -83 143 -14 25 -55 97 -92 160 -64 110 -202
349 -241 417 -10 18 -69 119 -130 225 -61 106 -123 213 -137 238 -14 25 -44
77 -67 115 -56 96 -59 106 -35 112 11 3 20 9 20 14 0 5 4 9 8 9 5 0 74 37 153
83 79 46 182 104 229 129 71 38 359 205 368 212 1 2 -3 27 -8 57 -13 65 -17
91 -25 144 -3 23 -8 52 -10 65 -8 37 -24 129 -30 170 -2 14 -6 36 -9 50 -6 29
-23 129 -31 180 -3 19 -10 60 -15 90 -5 30 -12 73 -16 95 -7 43 -7 44 -17 90
-3 17 -9 48 -12 69 -3 22 -7 42 -10 44 -5 5 -37 -11 -174 -91 -62 -37 -115
-67 -117 -67 -2 0 -23 -13 -47 -30 -25 -16 -48 -30 -51 -30 -3 0 -27 -13 -53
-29 -100 -59 -622 -361 -626 -361 -2 0 -8 19 -12 43 -4 23 -9 53 -12 67 -9 51
-5 227 7 285 25 127 64 220 134 324 35 52 36 54 26 110 -5 31 -16 97 -24 146
-9 50 -18 101 -21 115 -3 14 -7 39 -9 55 -6 37 -63 372 -76 440 -5 28 -12 64
-14 80 -20 122 -27 163 -31 185 -3 14 -8 43 -10 64 -2 21 -6 41 -9 43 -2 2
-41 -21 -87 -53z"/>
</g>
</svg>
