<svg width="22" height="27" viewBox="0 0 22 27" fill="none" xmlns="http://www.w3.org/2000/svg">
<path fill-rule="evenodd" clip-rule="evenodd" d="M14.7322 7.24292C14.4083 6.91903 13.8832 6.91903 13.5593 7.24292C13.2354 7.5668 13.2354 8.09193 13.5593 8.41581L17.9491 12.8056H2.05202C1.59398 12.8056 1.22266 13.1769 1.22266 13.6349C1.22266 14.093 1.59398 14.4643 2.05202 14.4643H17.9491L13.5593 18.854C13.2354 19.1779 13.2354 19.703 13.5593 20.0269C13.8832 20.3508 14.4083 20.3508 14.7322 20.0269L20.5378 14.2214C20.8617 13.8975 20.8617 13.3724 20.5378 13.0485L14.7322 7.24292Z" fill="currentColor"/>
</svg>
