<svg width="28" height="28" viewBox="0 0 28 28" fill="none" xmlns="http://www.w3.org/2000/svg">
<path fill-rule="evenodd" clip-rule="evenodd" d="M14 0C12.1503 0 10.6454 1.50495 10.6454 3.35464C10.6454 5.20434 12.1503 6.70928 14 6.70928C15.8497 6.70928 17.3546 5.20434 17.3546 3.35464C17.3546 1.50495 15.8497 0 14 0ZM7.5495 10.0756C7.5495 8.88005 8.52261 7.90721 9.71841 7.90721H10.6448C11.6644 8.48597 12.8216 8.79145 14.0001 8.79145C15.1791 8.79145 16.3357 8.48597 17.3554 7.90721H18.2822C19.4774 7.90721 20.4506 8.88005 20.4506 10.0756V16.5669H20.4209C18.9986 14.5497 16.6509 13.229 14.0001 13.229C11.3493 13.229 9.00151 14.5497 7.57925 16.5669H7.54955V10.0756H7.5495ZM28 17.5001L25.7557 20.8199C25.6492 20.9779 25.6492 21.1851 25.7557 21.3425L28 24.6629H20.9866C21.5395 23.5885 21.8524 22.3704 21.8524 21.081C21.8524 20.1437 21.6867 19.2438 21.384 18.4088V17.5001H28V17.5001ZM14 28C17.8152 28 20.919 24.8963 20.919 21.0811C20.919 17.2662 17.8152 14.1622 14 14.1622C10.1851 14.1622 7.0811 17.2663 7.0811 21.0811C7.08105 24.8963 10.1851 28 14 28ZM18.9509 19.925C18.8937 19.7488 18.7365 19.6228 18.5519 19.6046L15.6089 19.3195L14.4277 16.6087C14.3536 16.4384 14.1854 16.3283 14 16.3283C13.8145 16.3283 13.6464 16.4384 13.5723 16.6087L12.3912 19.3195L9.44841 19.6046C9.26352 19.6228 9.10689 19.7488 9.04936 19.9255C8.9921 20.1019 9.04471 20.2954 9.18422 20.4184L11.3966 22.3798L10.7589 25.2672C10.7188 25.448 10.7901 25.636 10.9406 25.745C11.0903 25.854 11.2909 25.8639 11.4513 25.77L14 24.2707L16.5492 25.77C16.6222 25.8132 16.7039 25.8342 16.7853 25.8342C16.8822 25.8342 16.9786 25.8044 17.0597 25.745C17.2103 25.636 17.2812 25.448 17.2411 25.2672L16.6034 22.3798L18.8166 20.4184C18.9553 20.2954 19.0079 20.1019 18.9509 19.925ZM15.7792 21.8635C15.6521 21.9755 15.5959 22.1475 15.6328 22.3132L16.099 24.4226L14.237 23.3276C14.1632 23.2844 14.0818 23.2629 14 23.2629C13.9182 23.2629 13.8365 23.2844 13.7639 23.3276L11.9013 24.4226L12.3672 22.3132C12.4041 22.1475 12.3479 21.9755 12.2213 21.8629L10.6046 20.4308L12.7547 20.2219C12.9231 20.2057 13.0695 20.0989 13.1372 19.9437L14 17.9633L14.8628 19.9437C14.9305 20.0995 15.0769 20.2057 15.2456 20.2219L17.3954 20.4308L15.7792 21.8635ZM0 24.6629L2.24487 21.3425C2.3508 21.1851 2.3508 20.9779 2.24487 20.8199L0 17.5001H6.61626V18.4089C6.31356 19.2438 6.14786 20.1438 6.14786 21.0811C6.14786 22.3704 6.46051 23.5885 7.01334 24.6629H0V24.6629Z" fill="currentColor"/>
</svg>
