<svg width="42" height="42" viewBox="0 0 42 42" fill="none" xmlns="http://www.w3.org/2000/svg">
<g clip-path="url(#clip0)">
<path d="M17.5721 35.2982C17.3898 34.3853 17.0138 33.522 16.4695 32.7667C15.9252 32.0113 15.2253 31.3815 14.4169 30.9197C13.6397 30.4783 12.8082 30.1403 11.9435 29.9144C12.7143 29.3356 13.2835 28.529 13.5706 27.6088C13.8576 26.6886 13.8479 25.7014 13.5429 24.787C13.2378 23.8726 12.6528 23.0774 11.8708 22.5138C11.0887 21.9503 10.1492 21.6471 9.18524 21.6471C8.22131 21.6471 7.28179 21.9503 6.49973 22.5138C5.71767 23.0774 5.13269 23.8726 4.82762 24.787C4.52255 25.7014 4.51285 26.6886 4.7999 27.6088C5.08694 28.529 5.65619 29.3356 6.42703 29.9144C5.56295 30.1405 4.73211 30.4784 3.95559 30.9197C3.14728 31.3815 2.44738 32.0112 1.90309 32.7664C1.35879 33.5216 0.982759 34.3847 0.800339 35.2976L0.0128391 39.2436C-0.01764 39.3954 0.00654845 39.5532 0.0811271 39.6889C0.155706 39.8246 0.27587 39.9295 0.42037 39.9852C6.06285 42.1587 12.3116 42.1587 17.9541 39.9852C18.0986 39.9295 18.2187 39.8246 18.2933 39.6889C18.3679 39.5532 18.3921 39.3954 18.3616 39.2436L17.5721 35.2982ZM5.90596 26.2499C5.90596 25.6009 6.09841 24.9665 6.45895 24.4269C6.8195 23.8873 7.33196 23.4667 7.93153 23.2184C8.5311 22.97 9.19085 22.9051 9.82735 23.0317C10.4639 23.1583 11.0485 23.4708 11.5074 23.9297C11.9663 24.3886 12.2788 24.9732 12.4054 25.6097C12.532 26.2462 12.467 26.906 12.2187 27.5056C11.9703 28.1051 11.5498 28.6176 11.0102 28.9781C10.4706 29.3387 9.83618 29.5311 9.18721 29.5311C8.31729 29.5301 7.4833 29.184 6.86817 28.5689C6.25304 27.9538 5.90701 27.1198 5.90596 26.2499ZM1.40868 38.9542L2.08921 35.5548C2.23478 34.826 2.535 34.1368 2.96961 33.5339C3.40422 32.9309 3.9631 32.4282 4.60856 32.0597C6.00785 31.2775 7.58417 30.8669 9.18721 30.8669C10.7903 30.8669 12.3666 31.2775 13.7659 32.0597C14.4114 32.4282 14.9704 32.931 15.405 33.5341C15.8396 34.1372 16.1398 34.8265 16.2852 35.5555L16.9657 38.9542C11.9365 40.7557 6.43792 40.7557 1.40868 38.9542Z" fill="currentColor"/>
<path d="M41.9866 39.2436L41.1991 35.2956C41.0168 34.3826 40.6408 33.5194 40.0965 32.764C39.5522 32.0087 38.8522 31.3789 38.0438 30.9171C37.2659 30.4764 36.4338 30.1393 35.5685 29.9144C36.3393 29.3356 36.9085 28.529 37.1956 27.6088C37.4826 26.6886 37.4729 25.7014 37.1679 24.787C36.8628 23.8726 36.2778 23.0774 35.4958 22.5138C34.7137 21.9503 33.7742 21.6471 32.8102 21.6471C31.8463 21.6471 30.9068 21.9503 30.1247 22.5138C29.3427 23.0774 28.7577 23.8726 28.4526 24.787C28.1476 25.7014 28.1379 26.6886 28.4249 27.6088C28.7119 28.529 29.2812 29.3356 30.052 29.9144C29.1879 30.1405 28.3571 30.4784 27.5806 30.9197C26.7723 31.3815 26.0724 32.0112 25.5281 32.7664C24.9838 33.5216 24.6078 34.3847 24.4253 35.2976L23.6378 39.2436C23.6074 39.3954 23.6315 39.5532 23.7061 39.6889C23.7807 39.8246 23.9009 39.9295 24.0454 39.9852C29.6878 42.1587 35.9366 42.1587 41.579 39.9852C41.7235 39.9295 41.8437 39.8246 41.9183 39.6889C41.9929 39.5532 42.0171 39.3954 41.9866 39.2436ZM29.531 26.2499C29.531 25.6009 29.7234 24.9665 30.084 24.4269C30.4445 23.8873 30.957 23.4667 31.5565 23.2184C32.1561 22.97 32.8158 22.9051 33.4523 23.0317C34.0888 23.1583 34.6735 23.4708 35.1324 23.9297C35.5913 24.3886 35.9038 24.9732 36.0304 25.6097C36.157 26.2462 36.092 26.906 35.8437 27.5056C35.5953 28.1051 35.1748 28.6176 34.6352 28.9781C34.0956 29.3387 33.4612 29.5311 32.8122 29.5311C31.9423 29.5301 31.1083 29.184 30.4932 28.5689C29.878 27.9538 29.532 27.1198 29.531 26.2499ZM25.0337 38.9542L25.7142 35.5548C25.8598 34.826 26.16 34.1368 26.5946 33.5339C27.0292 32.9309 27.5881 32.4282 28.2336 32.0597C29.6328 31.2775 31.2092 30.8669 32.8122 30.8669C34.4153 30.8669 35.9916 31.2775 37.3909 32.0597C38.0364 32.4282 38.5954 32.931 39.03 33.5341C39.4646 34.1372 39.7648 34.8265 39.9102 35.5555L40.5907 38.9542C35.5615 40.7557 30.0629 40.7557 25.0337 38.9542Z" fill="currentColor"/>
<path d="M25.5531 15.7133L28.3218 20.0445C28.3919 20.1545 28.4932 20.2411 28.6128 20.2932C28.7324 20.3454 28.8648 20.3607 28.9931 20.3372C29.1214 20.3138 29.2398 20.2526 29.3332 20.1615C29.4266 20.0705 29.4908 19.9537 29.5175 19.826L30.4618 15.3431C35.4198 14.2695 38.7188 11.3052 38.7188 7.875C38.7188 3.53259 33.2719 0 26.5781 0C19.8844 0 14.4375 3.53259 14.4375 7.875C14.4375 11.9753 19.2937 15.3759 25.5531 15.7133ZM26.5781 1.3125C32.55 1.3125 37.4062 4.25644 37.4062 7.875C37.4062 10.7087 34.2727 13.2845 29.7865 14.1383C29.6593 14.1624 29.5421 14.2236 29.4496 14.3142C29.3571 14.4049 29.2935 14.5208 29.2668 14.6475L28.5633 17.9812L26.4758 14.7171C26.4184 14.6276 26.3402 14.5533 26.2478 14.5008C26.1555 14.4482 26.0517 14.4188 25.9455 14.4152C20.2282 14.2137 15.75 11.34 15.75 7.875C15.75 4.25644 20.6062 1.3125 26.5781 1.3125Z" fill="currentColor"/>
<path d="M24.9178 17.0446C24.8968 16.961 24.8595 16.8823 24.8081 16.8132C24.7567 16.744 24.6922 16.6856 24.6182 16.6413C24.5442 16.5971 24.4622 16.5678 24.3769 16.5553C24.2917 16.5427 24.2047 16.5471 24.1211 16.5682C21.9937 17.0932 19.7852 17.2046 17.6157 16.8963C17.4613 16.8738 17.3039 16.9081 17.1728 16.9928L14.1094 18.9392L14.5924 16.7644C14.6263 16.6116 14.6046 16.4517 14.5311 16.3136C14.4576 16.1755 14.3371 16.0681 14.1914 16.011C11.0585 14.7825 9.1875 12.7219 9.1875 10.4998C9.1875 8.31778 10.9974 6.27816 14.0287 5.04441C14.1085 5.01192 14.1812 4.96402 14.2425 4.90345C14.3038 4.84288 14.3526 4.77082 14.3861 4.69138C14.4196 4.61195 14.4371 4.5267 14.4377 4.4405C14.4382 4.3543 14.4218 4.26883 14.3893 4.18899C14.3568 4.10914 14.3089 4.03648 14.2483 3.97514C14.1877 3.91381 14.1157 3.865 14.0362 3.83152C13.9568 3.79803 13.8716 3.78052 13.7854 3.77998C13.6992 3.77944 13.6137 3.79589 13.5338 3.82838C9.99075 5.27081 7.875 7.76522 7.875 10.4998C7.875 13.1478 9.85097 15.5529 13.1906 17.017L12.4825 20.2012C12.4542 20.328 12.4641 20.4603 12.5111 20.5815C12.5581 20.7027 12.64 20.8071 12.7464 20.8817C12.8528 20.9563 12.9789 20.9976 13.1088 21.0004C13.2388 21.0032 13.3666 20.9674 13.4761 20.8974L17.6761 18.2252C19.9355 18.5178 22.2297 18.3874 24.4414 17.8406C24.6101 17.7982 24.755 17.6905 24.8444 17.5412C24.9337 17.392 24.9601 17.2133 24.9178 17.0446Z" fill="currentColor"/>
<path d="M22.3125 4.59375H25.5938V5.90625H22.3125V4.59375Z" fill="currentColor"/>
<path d="M26.9062 4.59375H28.2188V5.90625H26.9062V4.59375Z" fill="currentColor"/>
<path d="M29.5312 4.59375H32.8125V5.90625H29.5312V4.59375Z" fill="currentColor"/>
<path d="M20.3438 7.21875H28.2188V8.53125H20.3438V7.21875Z" fill="currentColor"/>
<path d="M29.5312 7.21875H32.8125V8.53125H29.5312V7.21875Z" fill="currentColor"/>
<path d="M20.3438 9.84375H22.9688V11.1562H20.3438V9.84375Z" fill="currentColor"/>
<path d="M24.2812 9.84375H31.5V11.1562H24.2812V9.84375Z" fill="currentColor"/>
</g>
<defs>
<clipPath id="clip0">
<rect width="42" height="42" fill="currentColor"/>
</clipPath>
</defs>
</svg>
