<svg width="22" height="22" viewBox="0 0 22 22" fill="none" xmlns="http://www.w3.org/2000/svg">
<g clip-path="url(#clip0)">
<path d="M10.9995 0C6.82914 0 3.43701 3.39213 3.43701 7.5625C3.43701 11.7329 6.82914 15.125 10.9995 15.125C15.1685 15.125 18.562 11.7329 18.562 7.5625C18.562 3.39213 15.1685 0 10.9995 0ZM14.9746 6.49275L13.6684 8.129L13.8114 10.2671C13.8279 10.505 13.7193 10.7346 13.5226 10.8735C13.403 10.9574 13.2641 11 13.1239 11C13.0331 11 12.941 10.9821 12.8558 10.945L10.9995 10.1571L9.14464 10.945C8.92464 11.0385 8.67164 11.0124 8.47776 10.8735C8.28251 10.7346 8.17389 10.505 8.18901 10.2671L8.33201 8.129L7.02576 6.49275C6.88001 6.31125 6.83739 6.06787 6.91026 5.8465C6.98314 5.62512 7.16326 5.45738 7.38876 5.39825L9.33851 4.88812L10.4083 3.08687C10.6558 2.66887 11.3433 2.66887 11.5894 3.08687L12.6591 4.88812L14.6103 5.39825C14.8344 5.45738 15.0145 5.6265 15.0888 5.8465C15.163 6.0665 15.119 6.30988 14.9746 6.49275Z" fill="currentColor"/>
<path d="M3.26512 12.0217L0.0916164 17.5314C-0.0472586 17.7734 -0.0266336 18.0745 0.142491 18.2945C0.311616 18.5145 0.596241 18.6135 0.865741 18.5392L4.90274 17.4544L5.97662 21.4914C6.04812 21.7595 6.27499 21.9589 6.54999 21.996C6.58024 21.9987 6.61187 22.0001 6.64074 22.0001C6.88412 22.0001 7.11237 21.8709 7.23612 21.6564L10.2377 16.4616C7.25537 16.2086 4.69237 14.4857 3.26512 12.0217Z" fill="currentColor"/>
<path d="M21.9087 17.5314L18.7339 12.0217C17.308 14.4857 14.7436 16.2086 11.7612 16.4616L14.7629 21.6564C14.8866 21.8709 15.1149 22.0001 15.3582 22.0001C15.3871 22.0001 15.4187 21.9987 15.4476 21.9946C15.724 21.9575 15.9495 21.7581 16.0224 21.49L17.0962 17.453L21.1332 18.5379C21.4027 18.6121 21.686 18.5131 21.8565 18.2931C22.027 18.0745 22.0462 17.7734 21.9087 17.5314Z" fill="currentColor"/>
</g>
<defs>
<clipPath id="clip0">
<rect width="22" height="22" fill="white"/>
</clipPath>
</defs>
</svg>
